{"ProgramCode": "arh","Code": "ARH305","Name": "Archaeological Interpretation[24L]","Description": "Transforming archaeological results into statements about people and their life ways. Covers basic archaeological theory, including research design, sampling, stratigraphy, seriation, formation and testing or evaluation of hypotheses, regional analyses. Introduces some of the major schools of archaeological theory, including New Archaeology and Post-Processual Archaeology.","Prerequisite": "ANT200Y1","Corequisite": "none","Exclusion": "none","Breadth": "Thought, Belief and Behaviour (2)"}
{"ProgramCode": "arh","Code": "JGA305","Name": "Environmental and Archaeological Geophysics[24L/12P]","Description": "Application of near-surface geophysical methods to investigate environmental and archaeological sites; in particular magnetometry, resistivity, ground-probing radar, and seismic surveys. Course will cover background on the various methods, and allow students to run field surveys and present on case studies.","Prerequisite": "ESS241H1 or ANT200Y1 or GGR201H1","Corequisite": "none","Exclusion": "none","Breadth": "The Physical and Mathematical Universes (5)"}
{"ProgramCode": "arh","Code": "ARH306","Name": "Archaeological Field Methods[12L/61P]","Description": "Intensive instruction in archaeological field methods and acquisition of field skills, including archaeological search and survey, site mapping, laying out excavation grids, use of theodolites, total station, and GPS, stratigraphic excavation, stratigraphy, field recording, screening sediment, Ontario license and reporting requirements. Normally this course would take place on campus in the summer. This course has a mandatory Lab Materials Fee of $30 to cover non-reusable materials.  The fee will be included on the student&rsquo;s ROSI invoice.","Prerequisite": "ANT200Y1 or NMC260Y1 or NMC261Y0","Corequisite": "none","Exclusion": "none","Breadth": "None"}
{"ProgramCode": "arh","Code": "ARH309","Name": "Archaeology, Ethics, and the Public[24L]","Description": "An analysis of ethics in contemporary archaeology that covers reburial and repatriation, interpretation of the archaeological record in the context of historically oppressed groups, ethnic minorities, and non-western societies, the ethics of collecting and managing cultural property, relationships with the media, the debates surrounding looting, and other issues.","Prerequisite": "ANT200Y1","Corequisite": "none","Exclusion": "none","Breadth": "Society and its Institutions (3)"}
{"ProgramCode": "arh","Code": "ARH312","Name": "Archaeological Laboratory[28L/44P]","Description": "Techniques for making archaeological data meaningful after excavation or survey. Archaeological measurements, compilation of data, database design, archaeological systematics, and sampling theory in the context of lithics, pottery, floral, faunal and other archaeological remains. ","Prerequisite": "ANT200Y1 and a half statistics course (e.g. GGR270H1*, STA220H1, STA221H1, STA257H1, STA261H1, ANTC35H3**. Note: *Geography Pre- or co-requisites waived for Anthropology and Archaeology students; ** to be taken at the Scarborough Campus","Corequisite": "none","Exclusion": "none","Breadth": "The Physical and Mathematical Universes (5)"}
{"ProgramCode": "arh","Code": "ARH360","Name": "Prehistory of the Near East (formerly ANT360Y1)[24L]","Description": "From earliest times through the rise of complex hunter-gatherers, and the food producing revolution to politically complex societies in Southwest Asia.","Prerequisite": "ANT200Y1 or NMC260Y1","Corequisite": "none","Exclusion": "ARH360Y1","Breadth": "Society and its Institutions (3)"}
{"ProgramCode": "arh","Code": "ARH398","Name": "Research Excursions","Description": "An instructor-supervised group project in an off-campus setting. Details at http://www.artsci.utoronto.ca/current/course/399. Not eligible for CR/NCR option.","Prerequisite": "none","Corequisite": "none","Exclusion": "none","Breadth": "None"}
{"ProgramCode": "arh","Code": "ARH399","Name": "Research Excursions","Description": "An instructor-supervised group project in an off-campus setting. Details at http://www.artsci.utoronto.ca/current/course/399. Not eligible for CR/NCR option.","Prerequisite": "none","Corequisite": "none","Exclusion": "none","Breadth": "None"}
{"ProgramCode": "arh","Code": "ARH482","Name": "Special Topics in Archaeology [24S]","Description": "Unique opportunity to explore a particular archaeological topic in-depth. Topics vary from year to year.","Prerequisite": "A 200+ level ANT course","Corequisite": "none","Exclusion": "none","Breadth": "None"}
{"ProgramCode": "arh","Code": "ARH494","Name": "Topics in Emerging Scholarship (Archaeology)[24S]","Description": "Taught by an advanced PhD student or postdoctoral fellow, and based on his or her doctoral research and area of expertise, this course presents a unique opportunity to explore intensively a particular Archaeology topic in-depth. Topics vary from year to year. ","Prerequisite": "ARH305H1","Corequisite": "none","Exclusion": "none","Breadth": "Society and its Institutions (3)"}
{"ProgramCode": "arh","Code": "ARH495","Name": "Archaeology Research Practicum","Description": "Laboratory or practical research on an archaeological project that emphasizes methods and research design in archaeology. Students must obtain the consent of a Supervisor before enrolling. Students are required to give an oral presentation of research results to an open meeting of the Archaeology Centre at the conclusion of the course. Application must be made to the Anthropology Department. Not eligible for CR/NCR option.","Prerequisite": "A minimum of 14 credits, permission of Supervisor and Undergraduate Coordinator.","Corequisite": "none","Exclusion": "ANT497Y1Recommended Preparation: ARH305H1, ARH312Y1","Breadth": "None"}
