{"ProgramCode": "dts","Code": "DTS200","Name": "Introduction to Diaspora and Transnational Studies I (formerly DTS201H1, 202H1)[48L]","Description": "What is the relationship between place and belonging, between territory and memory? How have the experiences of migration and dislocation challenged the modern assumption that the nation-state should be the limit of identification? What effect has the emergence of new media of communication had upon the coherence of cultural and political boundaries? All of these questions and many more form part of the subject matter of Diaspora and Transnational Studies. This introductory course ex-amines the historical and contemporary movements of peoples and the complex issues of identity and experience to which these processes give rise as well as the creative possibilities that flow from movement and being moved. The area of study is comparative and interdisciplinary, drawing from the social sciences, history, the arts and humanities. Accordingly, this course provides the background to the subject area from diverse perspectives and introduces students to a range of key debates in the field, with particular attention to questions of history, globalization, cultural production and the creative imagination.","Prerequisite": "none","Corequisite": "none","Exclusion": "DTS201H1, DTS202H1","Breadth": "Creative and Cultural Representations (1) + Society and its Institutions (3)"}
{"ProgramCode": "dts","Code": "DTS300","Name": "Research Design for Diaspora and Transnational Studies [24L]","Description": "Focuses on research design and training in methods from history, geography, anthropology, literary and cultural studies, and other disciplines appropriate to Diaspora and Transnational Studies. Prepares students to undertake primary research required in senior seminars.","Prerequisite": "DTS200Y1 or permission of course instructor","Corequisite": "none","Exclusion": "none","Breadth": "The Physical and Mathematical Universes (5)"}
{"ProgramCode": "dts","Code": "JQR360","Name": "The Canadian Census: Populations, Migrations and Demographics [24L/12T]","Description": "Examines the Canadian population census through the experience of diasporic groups in Canada. Approaches the census as a statistical tool, an historical source and an ideological project of citizenship and nationalism. Uses census data to explore mathematical and statistical concepts and to integrate numerical ways of thinking with qualitative analysis. (Jointly sponsored by African Studies, Diaspora and Transnational Studies, Caribbean Studies, Equity Studies and Latin American Studies).","Prerequisite": "DTS200Y1/NEW150Y1/NEW224Y1/NEW240Y1/LAS200Y1","Corequisite": "none","Exclusion": "none","Breadth": "Society and its Institutions (3)"}
{"ProgramCode": "dts","Code": "DTS390","Name": "Independent Study[TBA]","Description": "A scholarly project chosen by the student, approved by the Department, and supervised by one of its instructors. Consult with the Diaspora and Transnational Studies Program Office for more information. Not eligible for CR/NCR option.","Prerequisite": "DTS200Y1","Corequisite": "none","Exclusion": "none","Breadth": "None"}
{"ProgramCode": "dts","Code": "DTS390","Name": "Independent Study[TBA]","Description": "A scholarly project chosen by the student, approved by the Department, and supervised by one of its instructors. Consult with the Diaspora and Transnational Studies Program Office for more information. Not eligible for CR/NCR option.","Prerequisite": "DTS200Y1","Corequisite": "none","Exclusion": "none","Breadth": "None"}
{"ProgramCode": "dts","Code": "DTS401","Name": "Advanced Topics in Diaspora and Transnationalism (Cosmopolitanism, Diaspora, Literature)[24S]","Description": "How much serious diversity can any society really tolerate? Postcolonial migrancy and the resulting diasporas/dispersions present not only a new cultural diversity and richness but also problematic differences that challenge social, political and epistemological categories. This advanced interdisciplinary class explores the co-constitutive relationship between Cosmopolitanism, Diaspora and Literature and will pay particular attention to questions of identity, home, citizenship, colonialism, migration, culture, the transnational conditions of diasporic existence and various other topics at the intersection of the three key concepts.","Prerequisite": "DTS200Y1 or equivalentRecommended Preparation: Students should be in their final academic year of study.","Corequisite": "none","Exclusion": "none","Breadth": "Society and its Institutions (3)"}
{"ProgramCode": "dts","Code": "DTS402","Name": "Advanced Topics in Diaspora and Transnationalism (Drugs and/in Diaspora)[24S]","Description": "The history of drugs is the history of diaspora, especially in the Americas. Prohibitionist drug policies have always trafficked in racial overtones. Cocaine in the Jim Crow south criminalized African Americans. Opium in the late 19th century charged Chinese immigrants with seducing white women. And marijuana during the American Depression demonized Mexicans and black jazz musicians. All of these stereotypes ultimately contributed to the criminalization and control of diasporas, from supposed Italian mobsters and Colombian cartels. This course, with a particular interest in cocaine, tracks the prohibition of drug use across the Americas to understand its contribution to the policing of diaspora.","Prerequisite": "DTS200Y1 or equivalentRecommended Preparation: Students should be in their final academic year of study.","Corequisite": "none","Exclusion": "none","Breadth": "Society and its Institutions (3)"}
{"ProgramCode": "dts","Code": "DTS403","Name": "Advanced Topics in Diaspora and Transnationalism (Foodways - Diasporic Diners, Transnational Tables and Culinary Connections)[24S]","Description": "Food links people across space and time. As it spirals outward from parochial sites of origin to articulate with new sites, actors and scales, it assumes new substance and meaning in new locales.  This movement of food gives rise to new &lsquo;foodways&rsquo; t help us to understand the past in terms of temporally connected sites of intense interaction.  Food also plays a strong role in shaping translocal identities. As peoples have moved in the world, food has played a central role in (re)defining who they are, reproducing myth and ritual, and bounding diasporic communities.  This course seeks to address questions surrounding the dynamics of the food &lsquo;we&rsquo; eat, the ways in which &lsquo;we&rsquo; eat, the meaning &lsquo;we&rsquo; give to eating, and the effect of eating in a transnational world. Recognizing that culinary culture is central to diasporic identifications, the focus is on the place of food in the enduring habits, rituals, and everyday practices that are collectively used to produce and sustain a shared sense of diasporic cultural identity.","Prerequisite": "DTS200Y1 or equivalentRecommended Preparation: Students should be in their final academic year of study.","Corequisite": "none","Exclusion": "none","Breadth": "Society and its Institutions (3)"}
{"ProgramCode": "dts","Code": "DTS404","Name": "Advanced Topics in Diaspora and Transnationalism [24S]","Description": "An in-depth investigation of topics in Diaspora and Transnationalism. Content in any given year depends on instructor.","Prerequisite": "DTS200Y1/CJS201H1 or equivalentRecommended Preparation: Students should be in their final academic year of study.","Corequisite": "none","Exclusion": "none","Breadth": "Society and its Institutions (3)"}
{"ProgramCode": "dts","Code": "DTS405","Name": "Advanced Topics in Diaspora and Transnationalism (Human Trafficking and Contemporary Slavery)[24S]","Description": "Human trafficking constitutes an egregious human rights violation and is increasingly being perceived as not necessarily a national security issue but one that is primarily affecting human security. This course is designed to critically examine a rising commodification of migratory flows, in the form of trafficking in persons for the purpose of labour and sexual exploitation, by addressing this problem in an interdisciplinary fashion as it relates to migration, economics, politics, and security. The course will provide a comprehensive overview of current global/local responses in legislation, policy and practice, including measures taken to address the 4 Ps: protection, prosecution, prevention and partnerships. Through readings, guest lectures and discussions, we will address questions such as: How is the definition on human trafficking operationalized? What is the labour migration-trafficking nexus and how are they related to global labour markets? What is meant by the labour exploitation continuum? Are &ldquo;rescue&rdquo; operations an effective intervention strategy in the trafficking of children? What levels of causality exists between instances of human trafficking and multinational corporations? The course will address novel analytical approaches and methodologies as well as emerging forms of trafficking such as organ and cyber trafficking.","Prerequisite": "DTS200Y1 or equivalentRecommended Preparation: Students should be in their final academic year of study.","Corequisite": "none","Exclusion": "none","Breadth": "Society and its Institutions (3)"}
{"ProgramCode": "dts","Code": "DTS406","Name": "Advanced Topics in Diaspora and Transnationalism[24S]","Description": "An in-depth investigation of topics in Diaspora and Transnationalism. Content in any given year depends on instructor.","Prerequisite": "DTS200Y1 or equivalentRecommended Preparation: Students should be in their final academic year of study.","Corequisite": "none","Exclusion": "none","Breadth": "Society and its Institutions (3)"}
