{"ProgramCode": "hun","Code": "HUN100","Name": "Elementary Hungarian[120P]","Description": "The Department reserves the right to assign students to courses appropriate to their level of competence in Hungarian.The basic features and logic of the language. Development of conversational skills and the reading of easy texts. Open only to students with little or no knowledge of Hungarian.","Prerequisite": "none","Corequisite": "none","Exclusion": "none","Breadth": "Creative and Cultural Representations (1)"}
{"ProgramCode": "hun","Code": "HUN200","Name": "Intermediate Hungarian[96P]","Description": "Review of descriptive grammar; studies in syntax; vocabulary building; intensive oral practice; composition; reading and translation.","Prerequisite": "Permission of instructor","Corequisite": "none","Exclusion": "none","Breadth": "Creative and Cultural Representations (1)"}
{"ProgramCode": "hun","Code": "HUN310","Name": "Advanced Hungarian[48S]","Description": "A synchronic and diachronic survey of the Hungarian language. Conceptualized summary of grammar, syntax, and stylistics; studies in the genesis and historical stages of the language. Brief consideration of living dialects, the basics of poetics; selected problems in translation and language teaching. Readings in Hungarian.","Prerequisite": "none","Corequisite": "none","Exclusion": "none","Breadth": "Creative and Cultural Representations (1)"}
{"ProgramCode": "hun","Code": "HUN320","Name": "A Survey of Hungarian Literature[48S]","Description": "A chronological study of the development of Hungarian literature since the 12th century; emphasis both on outstanding writers and on significant movements or themes. Transformations of ideas and changes in language and style. No knowledge of Hungarian required.","Prerequisite": "none","Corequisite": "none","Exclusion": "none","Breadth": "Creative and Cultural Representations (1)"}
{"ProgramCode": "hun","Code": "HUN335","Name": "Urban vs. Rural: Immigration to and Settlement in North America[12L/12S]","Description": "This course will provide an examination of the history of Hungarian Immigration to and settlement in North America. The course will examine the \"push\" and \"pull\" factors, the socio-economic factors involved, their patterns of migration and the organizational development of the communities they founded in North America.  The course will compare and contrast the reception the immigrants and later refugees received in the United States and Canada and examine how they adapted to their new homelands.","Prerequisite": "none","Corequisite": "none","Exclusion": "none","Breadth": "Society and its Institutions (3)"}
{"ProgramCode": "hun","Code": "HUN345","Name": "The Dynamic of Hungarian Culture, Ethnography, and Folklore[12L/12S]","Description": "Explore the cultural traditions, historical processes, myths, and figures that have shaped and redefined Hungarian civilization and national identity. Theoretical and practical classes on ethno-genesis, anthropology, and folklore. Readings in English (also available in Hungarian).","Prerequisite": "none","Corequisite": "none","Exclusion": "none","Breadth": "Creative and Cultural Representations (1)"}
{"ProgramCode": "hun","Code": "HUN355","Name": "One Hundred Years of Dramatic Change: History of the Past Century and Reflections of Society in Hungarian Culture [12L/12S]","Description": "Explore Hungary&rsquo;s rapidly changing place in Europe. Focus on political, sociological, and historical understandings of nationalism and identity as they manifest themselves in literature, history, and culture. Knowledge of Hungarian not required.","Prerequisite": "none","Corequisite": "none","Exclusion": "none","Breadth": "Society and its Institutions (3)"}
{"ProgramCode": "hun","Code": "HUN455","Name": "Hungary and Europe: Cultural Adaptation in the Late 20th Century[12L/12S]","Description": "Focus on literature, art, mass media, and popular culture in post-1990 Hungary with special emphasis on the past ties to European culture and the impact of European integration. Readings in English (also available in Hungarian).","Prerequisite": "none","Corequisite": "none","Exclusion": "none","Breadth": "Creative and Cultural Representations (1)"}
{"ProgramCode": "hun","Code": "HUN497","Name": "Independent Study (Hungarian)[TBA]","Description": "Translation course concentrating on Hungarian prose translation. Not eligible for CR/NCR option.","Prerequisite": "Permission of Department","Corequisite": "none","Exclusion": "none","Breadth": "None"}
{"ProgramCode": "hun","Code": "HUN498","Name": "Independent Study (Hungarian) [TBA]","Description": "Translation course concentrating on Hungarian prose translation. Not eligible for CR/NCR option.","Prerequisite": "Permission of Department","Corequisite": "none","Exclusion": "none","Breadth": "None"}
