{"ProgramCode": "las","Code": "LAS200","Name": "Latin America: History, Civilization and Culture[48L/24P]","Description": "An introductory course that studies the development of societies in the Latin American region from its pre-Columbian past to its heterogeneous present. Cultural, geographical, historical, literary, political and social topics will be examined combining traditional historical narratives and supporting documents with art, cinema, music and other texts from popular culture and mass media. This course is open to students in at least their second year of undergraduate study. It provides both a broad foundation, and an invitation to delve deeper in further courses and in different disciplinary concentrations.","Prerequisite": "none","Corequisite": "none","Exclusion": "IAS200Y1","Breadth": "Creative and Cultural Representations (1) + Society and its Institutions (3)"}
{"ProgramCode": "las","Code": "LAS300","Name": "Topics in the Social Sciences[24S]","Description": "The goal of this course is to critically analyze the current economic, social, and political realities of Latin America, based on an insightful knowledge of its past and present. Topics of the course vary depending on the needs of the program and the interests of students.","Prerequisite": "IAS200Y1/LAS200Y1/POL305Y1","Corequisite": "none","Exclusion": "none","Breadth": "None"}
{"ProgramCode": "las","Code": "LAS301","Name": "Topics in the Humanities[24S]","Description": "The goal of this course is to critically analyze the Latin American social imaginaries as expressed in art, literature and/or film, based on close readings of texts. Topics of the course vary depending on the needs of the program and the interests of students.","Prerequisite": "IAS200Y1/LAS200Y1","Corequisite": "none","Exclusion": "none","Breadth": "None"}
{"ProgramCode": "las","Code": "LAS302","Name": "Topics in Latin American Studies (The Hispanic Caribbean)[24S]","Description": "This interdisciplinary course examines Cuba's relevance and legacy from the mid-nineteenth century to the present. It explores tensions of Cuban life in counterpoint with its creative rendering in the arts and literature, through a variety of fresh approaches in fields such as cultural studies, historical sociology, anthropology, and sociology of religion.","Prerequisite": "none","Corequisite": "none","Exclusion": "none","Breadth": "None"}
{"ProgramCode": "las","Code": "JQR360","Name": "The Canadian Census: Populations, Migrations and Demographics [24L/12T]","Description": "Examines the Canadian population census through the experience of diasporic groups in Canada. Approaches the census as a statistical tool, an historical source and an ideological project of citizenship and nationalism. Uses census data to explore mathematical and statistical concepts and to integrate numerical ways of thinking with qualitative analysis. (Jointly sponsored by African Studies, Diaspora and Transnational Studies, Caribbean Studies, Equity Studies and Latin American Studies).","Prerequisite": "DTS200Y1/NEW150Y1/NEW224Y1/NEW240Y1/LAS200Y1","Corequisite": "none","Exclusion": "none","Breadth": "Society and its Institutions (3)"}
{"ProgramCode": "las","Code": "LAS400","Name": "Topics in Latin American Studies","Description": "An upper level seminar. Topics of the course vary from year to year, depending on the needs of the program and the interests of students. Offered in alternate years.","Prerequisite": "LAS200Y1 & LAS300H/301H","Corequisite": "none","Exclusion": "none","Breadth": "None"}
{"ProgramCode": "las","Code": "LAS410","Name": "Independent Study ","Description": "This course provides an opportunity for students to do academic research related to Latin American issues under the supervision of a faculty member. The intent is that the student, aided and advised by the supervisor, will read relevant literature, and plan, execute, analyze and report on an original and independent investigation of an appropriate topic. For application forms, please visit the \"Resources\" section of the programme's website. Not eligible for CR/NCR option.","Prerequisite": "LAS200Y and LAS300H/LAS301H/LAS302H","Corequisite": "none","Exclusion": "none","Breadth": "None"}
