{"ProgramCode": "lin","Code": "LIN100","Name": "Introduction to General Linguistics[48L/24T]","Description": "Lectures on fundamental principles with illustrations from English and from a broad spectrum of other languages. Practice in elementary analytic techniques.","Prerequisite": "none","Corequisite": "none","Exclusion": "none","Breadth": "Thought, Belief and Behaviour (2)"}
{"ProgramCode": "lin","Code": "LIN200","Name": "Introduction to Language[24L/12T]","Description": "A general-interest course on language. Possible topics include: the structure of language; how language changes over time, the social and psychological aspects of language, language and culture, the origin of language, writing systems, and language acquisition. (This course cannot be used as an entrance to programs in linguistics, and cannot be used as a prerequisite to any linguistics courses unless otherwise indicated.)","Prerequisite": "none","Corequisite": "none","Exclusion": "LIN100Y1, ANT253H1","Breadth": "Thought, Belief and Behaviour (2)"}
{"ProgramCode": "lin","Code": "LIN201","Name": "Canadian English[24L]","Description": "A study of English spoken in Canada. Topics include: vocabulary items, usage surveys, non-standard dialect enclaves, regional variation and historical development. Students will develop original research projects.","Prerequisite": "LIN100Y1/LIN200H1","Corequisite": "none","Exclusion": "none","Breadth": "Thought, Belief and Behaviour (2)"}
{"ProgramCode": "lin","Code": "LIN203","Name": "English Words[24L/12T]","Description": "English has a rich vocabulary. We will learn how it has developed over time, and investigate aspects of the meaning and pronunciation of words. Most of all, we will study how words are put together, so that students will be able to recognize and analyze unfamiliar words.","Prerequisite": "none","Corequisite": "none","Exclusion": "none","Breadth": "Thought, Belief and Behaviour (2)"}
{"ProgramCode": "lin","Code": "LIN204","Name": "English Grammar[24L/12T]","Description": "How the English language works: students analyze a wide variety of English grammatical structures and learn how they vary across dialects and change through time.","Prerequisite": "none","Corequisite": "none","Exclusion": "none","Breadth": "Thought, Belief and Behaviour (2)"}
{"ProgramCode": "lin","Code": "LIN228","Name": "Phonetics[24L/12T]","Description": "Investigation of the sounds most commonly used in languages from an articulatory and acoustic point of view, with practice in their recognition and production. Students will learn the International Phonetic Alphabet (IPA) and practice transcribing a wide variety of speech sounds.","Prerequisite": "none","Corequisite": "none","Exclusion": "none","Breadth": "Thought, Belief and Behaviour (2)"}
{"ProgramCode": "lin","Code": "LIN229","Name": "Sound Patterns in Language[24L/12T]","Description": "The nature and organization of phonological systems, with practical work in analysis.","Prerequisite": "LIN100Y1, LIN228H1","Corequisite": "none","Exclusion": "none","Breadth": "Thought, Belief and Behaviour (2)"}
{"ProgramCode": "lin","Code": "LIN232","Name": "Syntactic Patterns in Language[24L/12T]","Description": "The nature and organization of syntactic systems; their relation to semantic systems and the linguistic organization of discourse; practical work in analysis.","Prerequisite": "LIN100Y1","Corequisite": "none","Exclusion": "none","Breadth": "Thought, Belief and Behaviour (2)"}
{"ProgramCode": "lin","Code": "LIN241","Name": "Introduction to Semantics[24L/12T]","Description": "An introduction to meaning within linguistics and the interpretation of language in context. Topics include logical and semantic relations, pragmatic concepts such as presupposition and implicature, the nature of thematic roles, quantifiers and scope relations, the expressions of temporal and modal relations in natural language.","Prerequisite": "LIN100Y1","Corequisite": "none","Exclusion": "none","Breadth": "Thought, Belief and Behaviour (2)"}
{"ProgramCode": "lin","Code": "LIN251","Name": "Introduction to Sociolinguistics[24L/12T]","Description": "How does linguistic variation construct identity? Introduction to recent sociolinguistic literature on language contact, multilingualism, code-switching, expressions of ethnic solidarity and regional identity, sex and gender differentiation, dialect geography, sociophonetics, perceptual dialectology, diffusion of norms in mobile populations, documentation of variation in lesser studied languages, and changes across the life-span.","Prerequisite": "LIN100Y1","Corequisite": "none","Exclusion": "none","Breadth": "Thought, Belief and Behaviour (2)"}
{"ProgramCode": "lin","Code": "LIN299","Name": "Research Opportunity Program ","Description": "Credit course for supervised participation in faculty research project. Details at http://www.artsci.utoronto.ca/current/course/rop. Not eligible for CR/NCR option.","Prerequisite": "none","Corequisite": "none","Exclusion": "none","Breadth": "None"}
{"ProgramCode": "lin","Code": "LIN305","Name": "Quantitative Methods in Linguistics[36L]","Description": "Principles of research design, data collection, and a wide variety of statistical techniques for research in various subfields of linguistics.","Prerequisite": "LIN100Y1 and one full course in LIN/JAL/JFL/JLP","Corequisite": "none","Exclusion": "none","Breadth": "Thought, Belief and Behaviour (2)"}
{"ProgramCode": "lin","Code": "LIN306","Name": "Language Diversity and Language Universals[24L]","Description": "This course examines cross-linguistic typological features found in the languages of the world. Special attention is given to describing morphological and syntactic patterns found cross-linguistically. The goal of the course is to draw on the range of variation in order to uncover language universals. (Not offered every year)","Prerequisite": "LIN232H1","Corequisite": "none","Exclusion": "none","Breadth": "Thought, Belief and Behaviour (2)"}
{"ProgramCode": "lin","Code": "JLP315","Name": "Language Acquisition[36L]","Description": "Infants&rsquo; abilities at birth, prelinguistic development, the first words, phonological, syntactic and semantic development. Social variables influencing development of language, bilingualism, models of development, language play. (Sponsored by the Departments of Linguistics and Psychology, but administered solely by the Dept. of Linguistics).","Prerequisite": "One full course equivalent at the 200+ level in LIN/JAL/JUP/PSL/PSY/COG","Corequisite": "none","Exclusion": "none","Breadth": "Thought, Belief and Behaviour (2)"}
{"ProgramCode": "lin","Code": "LIN322","Name": "Phonological Theory[36L]","Description": "Basic issues in current phonological theory. Problems focusing on analysis and theory. (Students who want to pursue graduate studies in linguistics are strongly advised to include this course in their program.)","Prerequisite": "LIN229H1","Corequisite": "none","Exclusion": "none","Breadth": "Thought, Belief and Behaviour (2)"}
{"ProgramCode": "lin","Code": "LIN323","Name": "Acoustic Phonetics[24L]","Description": "Introduction to the acoustics of the vocal tract, including acoustic properties of speech and its analysis using instrumental techniques.","Prerequisite": "LIN100Y1, LIN228H1","Corequisite": "none","Exclusion": "none","Breadth": "The Physical and Mathematical Universes (5)"}
{"ProgramCode": "lin","Code": "JAL328","Name": "Writing Systems [24L]","Description": "Introduction to writing systems; their historical development, their relationship to language, and their role in culture and society. (Given by the Departments of Anthropology and Linguistics) (Not offered every year)","Prerequisite": "ANT100Y1/LIN100Y1/LIN200H1 ","Corequisite": "none","Exclusion": "none","Breadth": "Thought, Belief and Behaviour (2)"}
{"ProgramCode": "lin","Code": "LIN331","Name": "Syntactic Theory[36L]","Description": "An introduction to the foundations and formal framework of current generative grammar, concentrating on Chomsky's Minimalist theory. (Students who want to pursue graduate studies in linguistics are strongly advised to include this course in their program.)","Prerequisite": "LIN232H1","Corequisite": "none","Exclusion": "none","Breadth": "Thought, Belief and Behaviour (2)"}
{"ProgramCode": "lin","Code": "LIN333","Name": "Morphological Patterns in Language [36L]","Description": "The nature and organization of morphological systems, with practical work in analysis.","Prerequisite": "LIN229H1, LIN232H1 ","Corequisite": "none","Exclusion": "LIN231H1, LIN231H5","Breadth": "Thought, Belief and Behaviour (2)"}
{"ProgramCode": "lin","Code": "LIN341","Name": "Semantic Theory[36L]","Description": "The study of natural language semantics and the relation between interpretation and syntactic structure. Topics include predication and quantification, scope and anaphora, problems of discourse analysis, the interpretation of different types of pronouns, and ellipsis.","Prerequisite": "LIN241H1","Corequisite": "none","Exclusion": "none","Breadth": "Thought, Belief and Behaviour (2)"}
{"ProgramCode": "lin","Code": "LIN351","Name": "Sociolinguistic Patterns in Language [24L/12T]","Description": "An exploration of linguistic variation and its social implications, especially the quantitative study of phonological and grammatical features and their correlations with age, sex, ethnicity, and other social variables.","Prerequisite": "LIN100Y1, LIN251H1, or permission of the instructor","Corequisite": "none","Exclusion": "none","Breadth": "Society and its Institutions (3)"}
{"ProgramCode": "lin","Code": "JAL353","Name": "Conversational Structures [36L]","Description": "An introduction to the detailed observation of ordinary conversational interaction, and to some of the main ways in which such interaction is organized. The focus is on developing the capacity to discern orderliness in the details of everyday interaction, and beginning independent research in this area. (Given by the Departments of Anthropology and Linguistics)","Prerequisite": "LIN100Y1/LIN200H1/ANT253H1","Corequisite": "none","Exclusion": "none","Breadth": "Thought, Belief and Behaviour (2)"}
{"ProgramCode": "lin","Code": "JAL355","Name": "Language and Gender [24L]","Description": "An introduction to some of the principal questions of feminist theory, as viewed from sociolinguistics. Topics include: socialization into gendered discourse patterns, cultural and ethnic differences in gendered interactions; the role of language and gender in legal, medical and labour settings; multilingualism, migration, imperialism and nationalism; sexuality, desire and queer linguistics, language, gender and globalization.","Prerequisite": "One FCE at the 200-level in LIN/ANT/JAL/SOC/WGSRecommended Preparation: ANT204H1/ANT253H1/SOC200H1/SOC214H1","Corequisite": "none","Exclusion": "none","Breadth": "Society and its Institutions (3)"}
{"ProgramCode": "lin","Code": "LIN362","Name": "Historical Linguistics[36L]","Description": "An introduction to diachronic linguistics. Theories of language change; the comparative method, internal reconstruction, linguistic geography, the origin of languages; language death.","Prerequisite": "LIN229H1","Corequisite": "none","Exclusion": "none","Breadth": "Thought, Belief and Behaviour (2)"}
{"ProgramCode": "lin","Code": "JLP374","Name": "Psychology of Language [36L]","Description": "Human and other animal communication, structure of human language, word meaning and semantic memory, psychological studies of syntax, bilingualism, language and thought, language errors and disorders.  (Sponsored by the Departments of Linguistics and Psychology, but administered solely by the Dept. of Linguistics).","Prerequisite": "One FCE from LIN228H1, LIN229H1, LIN232H1, LIN241H1, PSY260H1, PSY270H1, PSY280H1, PSY290H1, COG250Y1","Corequisite": "none","Exclusion": "PSY374H5, PLIC55H3","Breadth": "Thought, Belief and Behaviour (2)"}
{"ProgramCode": "lin","Code": "LIN398","Name": "Research Excursions","Description": "An instructor-supervised group project in an off-campus setting. Details at http://www.artsci.utoronto.ca/current/course/399. Not eligible for CR/NCR option.","Prerequisite": "none","Corequisite": "none","Exclusion": "none","Breadth": "None"}
{"ProgramCode": "lin","Code": "LIN399","Name": "Research Excursions","Description": "An instructor-supervised group project in an off-campus setting. Details at http://www.artsci.utoronto.ca/current/course/399. Not eligible for CR/NCR option.","Prerequisite": "none","Corequisite": "none","Exclusion": "none","Breadth": "None"}
{"ProgramCode": "lin","Code": "JAL401","Name": "Field Linguistics [48P]","Description": "Practice in language analysis based on elicited data from a native speaker of a foreign language, emphasizing procedures and techniques. (Given by the Departments of Anthropology and Linguistics)","Prerequisite": "Completion of LIN322H1 and LIN331H1 or permission of the instructor","Corequisite": "none","Exclusion": "none","Breadth": "Thought, Belief and Behaviour (2)"}
{"ProgramCode": "lin","Code": "LIN409","Name": "Structure of a Specific Language[24L]","Description": "Topics may include: the phonological, morphological, syntactic, and semantic systems; the writing system; a brief diachronic sketch; variation and sociolinguistic aspects. (Not offered every year).","Prerequisite": "LIN228H1, LIN229H1, LIN232H1 + 1 FCE at THE 300+ level in LIN/JAL/JFL/JLP/JLS","Corequisite": "none","Exclusion": "none","Breadth": "Thought, Belief and Behaviour (2)"}
{"ProgramCode": "lin","Code": "LIN423","Name": "Phonetic Analysis[36S]","Description": "This course provides students with hands-on experience with main methods of linguistic phonetic (acoustic and articulatory) analysis through project-based group work and training in writing up experimental results.","Prerequisite": "LIN323H1","Corequisite": "none","Exclusion": "none","Breadth": "The Physical and Mathematical Universes (5)"}
{"ProgramCode": "lin","Code": "LIN429","Name": "Research in Phonology[24S]","Description": "Research in Phonological Theory, including guided instruction in how to undertake critical reading of primary literature, develop an original topic, write a research paper, an abstract, a handout, and give an oral presentation. Not eligible for CR/NCR option.","Prerequisite": "LIN322H1","Corequisite": "none","Exclusion": "none","Breadth": "Thought, Belief and Behaviour (2)"}
{"ProgramCode": "lin","Code": "LIN432","Name": "Advanced Morphology[24L]","Description": "Current research involving morphology, including the role of morphology in the grammar, the nature of inflectional paradigms, affixes affecting grammatical relations. Each year one topic will be a special focus and will be dealt with at length. (Not offered every year)","Prerequisite": "LIN333H1","Corequisite": "LIN331H1","Exclusion": "none","Breadth": "Thought, Belief and Behaviour (2)"}
{"ProgramCode": "lin","Code": "LIN439","Name": "Research in Syntax[24S]","Description": "Research in Syntactic Theory, including guided instruction in how to undertake critical reading of primary literature, develop an original topic, write a research paper, an abstract, a handout, and give an oral presentation. Not eligible for CR/NCR option.","Prerequisite": "LIN331H1","Corequisite": "none","Exclusion": "none","Breadth": "Thought, Belief and Behaviour (2)"}
{"ProgramCode": "lin","Code": "LIN441","Name": "Intensional Semantics[24L]","Description": "Topics in intensional semantics, including formal semantics of tense, aspect, modality, and attitude verbs. (Not offered every year)","Prerequisite": "LIN341H1","Corequisite": "none","Exclusion": "none","Breadth": "Thought, Belief and Behaviour (2)"}
{"ProgramCode": "lin","Code": "LIN451","Name": "Urban Dialectology[24L]","Description": "Ways in which urban sub-cultures differ in their use of language. How speakers dialects reflect their ethnicity, group affiliation, and other social categories. Practice in dialect analysis based on data from the speech community, emphasizing procedures and techniques.","Prerequisite": "LIN351H1/LIN256H1 plus 2 FCE at the 200+ level in LIN/JAL/JLP","Corequisite": "none","Exclusion": "none","Breadth": "Society and its Institutions (3)"}
{"ProgramCode": "lin","Code": "LIN456","Name": "Language Variation and Change: Theory and Analysis [36L]","Description": "The theory and practice of sociolinguistics. The inter-relationship between language and society from the perspective of collecting, organizing, and analyzing patterns in natural speech data, including field methods and quantitative methods for correlating linguistic and social variables.","Prerequisite": "LIN351H1","Corequisite": "none","Exclusion": "none","Breadth": "Society and its Institutions (3)"}
{"ProgramCode": "lin","Code": "LIN458","Name": "Revitalizing Languages[24L]","Description": "A study of language endangerment and language revitalization efforts, focusing on Aboriginal languages of Canada. Topics include language classification and a survey of major features of the languages, what it means for a language to be endangered, the factors that contribute to language shift, and efforts to reverse language shift, including discussion of literacy and dictionaries.","Prerequisite": "LIN100Y1Y plus 2 FCE at the 200+ level in LIN/JAL","Corequisite": "none","Exclusion": "none","Breadth": "Society and its Institutions (3)"}
{"ProgramCode": "lin","Code": "JLP471","Name": "Advanced Psycholinguistics [24S]","Description": "Seminar in advanced topics in psycholinguistics. Content varies from year to year.  (Sponsored by the Departments of Linguistics and Psychology, but administered solely by the Dept. of Linguisitics).","Prerequisite": "JLP374H1","Corequisite": "none","Exclusion": "none","Breadth": "Thought, Belief and Behaviour (2)"}
{"ProgramCode": "lin","Code": "JLS472","Name": "Child Language Disorders[36L]","Description": "Students are introduced to the etiologies and characteristics of speech and language disorders in children, associated with autism, intellectual disabilities, and specific language impairment.  Theoretical underpinnings of the major intervention approaches for children with speech and langauge disorders are discussed.  (Given by the Departments of Linguistics and Speech Language Pathology)","Prerequisite": "LIN100Y1, LIN228H1, and 1 FCE at the 300+ level","Corequisite": "none","Exclusion": "none","Breadth": "Living Things and Their Environment (4)"}
{"ProgramCode": "lin","Code": "JLS474","Name": "Disorders of Speech and Language[36L]","Description": "Normal and deviant development of speech and language; a survey of the disorders of human communication; an overview of intervention for disorders of speech, voice, language, swallowing and hearing; the effects of human communication handicaps on the individual, family, and community; theoretical and philosophical aspects of disordered communication. (Given by the Departments of Linguistics and Speech Language Pathology) (Not offered every year).","Prerequisite": "JLP315H1/JLP374H1, and one FCE at the 300+ level","Corequisite": "none","Exclusion": "none","Breadth": "Living Things and Their Environment (4)"}
{"ProgramCode": "lin","Code": "JLS475","Name": "Literacy and Reading Disorders[36L]","Description": "An introduction to the typical development of emergent literacy skills, including oral language, phonological awareness, narratives, and emergent writing in children; a discussion of the effects of language disorders on emergent literacy skills; a survey of approaches to intervention for children&rsquo;s emergent literacy skills. (Given by the Departments of Linguistics and Speech Language Pathology)","Prerequisite": "LIN100Y1, LIN228H1, and one FCE at the 300+ level","Corequisite": "none","Exclusion": "none","Breadth": "Living Things and Their Environment (4)"}
{"ProgramCode": "lin","Code": "JLS476","Name": "Research and Service Learning in Communication Sciences and Disorders[36S]","Description": "This course exposes students to research findings and methods that are highly pertinent to the fields of audiology and speech-language pathology, offering them with an extended service learning component in research laboratories or clinical settings. Successful completion of this course would provide students with advanced study in hearing and communication disorders that will be useful in their applications to audiology or speech-language pathology programs and in their future study of audiology or speech-language pathology. Not eligible for CR/NCR option.","Prerequisite": "LIN100Y1, LIN228H1, and one FCE at the 300+ levelEnrolment Limits: 40","Corequisite": "none","Exclusion": "none","Breadth": "Living Things and Their Environment (4)"}
{"ProgramCode": "lin","Code": "JFL477","Name": "Issues in French and Linguistics I: Neurolinguistics[24S]","Description": "An advanced seminar on issues of current theoretical relevance in neurolinguistics, with a special reference to French. The aim of this course is to provide an introduction to the linguistic analysis and explanation of speech and language disorders. We will focus on the relation between the structure of human language and the brain's physiological and psychological systems.","Prerequisite": "Any two 300+ series LIN or FRE linguistics courses.","Corequisite": "none","Exclusion": "none","Breadth": "Thought, Belief and Behaviour (2)"}
{"ProgramCode": "lin","Code": "JFL478","Name": "Issues in French and Linguistics II: Language variation and change in French[24S]","Description": "This course examines linguistic variation and change&mdash;more specifically the quantitative study of phonological and grammatical patterns of use and their correlations with social factors (age, sex, socio-economic class, etc.)&mdash;in the French language.  Topics covered include in phonological and syntactic variation; change in real and apparent time, social networks; comparative sociolinguistics.  This course is taught in English.  It is also listed in the offerings of the Graduate Department of French. (Not offered in 2014-15; offered in alternate years)","Prerequisite": "Any two 300+ series LIN or FRE Linguistics course","Corequisite": "none","Exclusion": "none","Breadth": "Thought, Belief and Behaviour (2)"}
{"ProgramCode": "lin","Code": "LIN481","Name": "Introduction to Analysis and Argumentation[36L]","Description": "Argumentation, practice in constructing and evaluating hypotheses, and critical evaluation of representative articles. Emphasis on the structure of arguments rather than on the analysis of a particular language.","Prerequisite": "LIN322H1/LIN331H1","Corequisite": "none","Exclusion": "none","Breadth": "Thought, Belief and Behaviour (2)"}
{"ProgramCode": "lin","Code": "LIN495","Name": "Individual Project[TBA]","Description": "A research or reading project undertaken by the student under the supervision of a staff member. Open only when a faculty member is willing and available to supervise. Not eligible for CR/NCR option.","Prerequisite": "Permission of the Department","Corequisite": "none","Exclusion": "none","Breadth": "None"}
{"ProgramCode": "lin","Code": "LIN496","Name": "Individual Project[TBA]","Description": "A research or reading project undertaken by the student under the supervision of a staff member. Open only when a faculty member is willing and available to supervise. Not eligible for CR/NCR option.","Prerequisite": "Permission of the Department","Corequisite": "none","Exclusion": "none","Breadth": "None"}
{"ProgramCode": "lin","Code": "LIN497","Name": "Individual Project[TBA]","Description": "A research or reading project undertaken by the student under the supervision of a staff member. Open only when a faculty member is willing and available to supervise. Not eligible for CR/NCR option.","Prerequisite": "Permission of the Department","Corequisite": "none","Exclusion": "none","Breadth": "None"}
{"ProgramCode": "lin","Code": "LIN498","Name": "Individual Project[TBA]","Description": "A research or reading project undertaken by the student under the supervision of a staff member. Open only when a faculty member is willing and available to supervise. Not eligible for CR/NCR option.","Prerequisite": "Permission of the Department","Corequisite": "none","Exclusion": "none","Breadth": "None"}
{"ProgramCode": "lin","Code": "LIN499","Name": "Individual Project[TBA]","Description": "A research or reading project undertaken by the student under the supervision of a staff member. Open only when a faculty member is willing and available to supervise. Not eligible for CR/NCR option.","Prerequisite": "Permission of the Department","Corequisite": "none","Exclusion": "none","Breadth": "None"}
