{"ProgramCode": "uni","Code": "UNI101","Name": "Citizenship in the Canadian City[12P/54S]","Description": "Who belongs? Who governs? Who decides? In this course you will examine the concepts of citizenship, public space, political membership, civic responsibility, and belonging. You will address topics such as Aboriginal sovereignty claims, urban multiculturalism, public housing, and greening the city. Not eligible for CR/NCR option.","Prerequisite": "Admission to UC One","Corequisite": "none","Exclusion": "Innis One, Munk One, New One, St. Mike's One, Trinity One, Vic One, Woodsworth One","Breadth": "Thought, Belief and Behaviour (2) + Society and its Institutions (3)"}
{"ProgramCode": "uni","Code": "UNI102","Name": "Performing the City [12P/54S]","Description": "You will explore the connections between the performing arts, urban spaces, and cultural diversity. How does theatrical performance affect how people perceive the city? What are the alternatives to established theatres, and how does community activism inform performing arts in Toronto? Not eligible for CR/NCR option.","Prerequisite": "Admission to UC One","Corequisite": "none","Exclusion": "Innis One, Munk One, New One, St. Mike's One, Trinity One, Vic One, Woodsworth One","Breadth": "Creative and Cultural Representations (1) + Society and its Institutions (3)"}
{"ProgramCode": "uni","Code": "UNI103","Name": "Gradients of Health in an Urban Mosaic[12P/54S]","Description": "In this course, you will examine how Toronto&rsquo;s varied communities access and use health care, and how they may encounter barriers in doing so. You will study how economic disparities, shifting demographics, and government policies affect health policy and the right to access resources. Not eligible for CR/NCR option.","Prerequisite": "Admission to UC One","Corequisite": "none","Exclusion": "Innis One, Munk One, New One, St. Mike's One, Trinity One, Vic One, Woodsworth One","Breadth": "Thought, Belief and Behaviour (2) + Society and its Institutions (3)"}
{"ProgramCode": "uni","Code": "UNI104","Name": "Sex in the City[12P/54S]","Description": "You will learn about the sexual politics of the city and how cities and their neighbourhoods become sexualized and desexualized spaces. In Sex in the City, you will examine what &ldquo;sex&rdquo; means to Toronto&rsquo;s varied, multicultural communities by looking at urban space,  cultural productions, law enforcement, safety and health resources and more. Not eligible for CR/NCR option.","Prerequisite": "Admission to UC One","Corequisite": "none","Exclusion": "Innis One, Munk One, New One, St. Mike's One, Trinity One, Vic One, Woodsworth One","Breadth": "Creative and Cultural Representations (1) + Society and its Institutions (3) "}
{"ProgramCode": "uni","Code": "UNI201","Name": "Aspects of Qu&eacute;bec Society[24S]","Description": "Contemporary Qu&eacute;bec from social, economic and political perspectives.","Prerequisite": "none","Corequisite": "none","Exclusion": "none","Breadth": "Society and its Institutions (3)"}
{"ProgramCode": "uni","Code": "UNI202","Name": "Aspects of Qu&eacute;bec Culture[24S]","Description": "An exploration of modern Qu&eacute;bec culture as expressed in literature and the performing arts. Through a selection of internationally-known entertainers, we examine form, artistic innovation, communication of information and knowledge, and spectatorship. Novels and plays provide key elements such as tradition and historical context.","Prerequisite": "none","Corequisite": "none","Exclusion": "none","Breadth": "Creative and Cultural Representations (1)"}
{"ProgramCode": "uni","Code": "UNI205","Name": "Topics in Canadian Studies I[24L]","Description": "A focused introduction to specific issues in Canadian culture and society. Content will vary from year to year. Specific course information will be available on the Canadian Studies website at www.uc.utoronto.ca/canadianstudies.","Prerequisite": "none","Corequisite": "none","Exclusion": "none","Breadth": "None"}
{"ProgramCode": "uni","Code": "SOC218","Name": "Asian Communities in Canada (formerly SOC218Y1)[24L]","Description": "The course will explore the structures and processes of Asian communities in Canada.  Historical development of various Asian communities will be explored.","Prerequisite": "SOC101Y1/SOC102H1/SOC103H1","Corequisite": "none","Exclusion": "SOC218Y1/SOC342Y1/SOC394Y1 ","Breadth": "Society and its Institutions (3)"}
{"ProgramCode": "uni","Code": "UNI218","Name": "Voices in Canadian Writing[24S]","Description": "A study of the variety of voices in Canadian fiction with a focus on contemporary writers. Issues such as marginalization, migration, diaspora and the formulation of the Canadian canon are discussed.","Prerequisite": "none","Corequisite": "none","Exclusion": "none","Breadth": "Creative and Cultural Representations (1)"}
{"ProgramCode": "uni","Code": "UNI221","Name": "Culture and the Media in Canada[24L]","Description": "An exploration of the encounter between culture and mass communication in Canadian society. The course considers the role of major cultural institutions such as the CBC and the NFB, and their granting bodies. The emergence of new media and its relationship to mass media is also addressed.","Prerequisite": "none","Corequisite": "none","Exclusion": "none","Breadth": "Creative and Cultural Representations (1)"}
{"ProgramCode": "uni","Code": "UNI230","Name": "Asian Canadian History[24L]","Description": "The course examines the history of Asians in Canada from the mid-1800s to the present by analyzing their contributions to the socio-cultural, economic, and political development of Canada. It explores how Asian Canadian history reconfigures prevailing understanding of race, migration, multiculturalism, and national identity through intersectional, comparative, and transnational frameworks.","Prerequisite": "none","Corequisite": "none","Exclusion": "none","Breadth": "Thought, Belief and Behaviour (2)"}
{"ProgramCode": "uni","Code": "UNI267","Name": "Canadian Nationalisms (formerly UNI220Y1)[24L]","Description": "A critical examination of contemporary forms of Canadian nationalism. This interdisciplinary course will interrogate national formations across theoretical works, policy documents, and cultural representations. Students will address the ways that nationalist discourses constitute difference, especially with respect to race, ethnicity, gender, and sexuality.","Prerequisite": "none","Corequisite": "none","Exclusion": "UNI220Y1Enrolment Limits: Priority: ASMAJ0728 (Ma Canadian Studies); ASSPE0728 (Sp Canadian Studies); ASMIN0728 (Mi Canadian Studies); ASMIN2728 (Mi Asian Canadian Studies) ","Breadth": "Creative and Cultural Representations (1)"}
{"ProgramCode": "uni","Code": "UNI268","Name": "Canada and Globalization (formerly UNI220Y1)[36L]","Description": "Students examine the impact of contemporary globalization on Canada, and for Canada&rsquo;s place in the world. The course is interdisciplinary in its approach and addresses globalization from a wide range of perspectives, including mobility, trade, urbanization, health, religion, environmental change, technology, communications, and the arts.","Prerequisite": "none","Corequisite": "none","Exclusion": "UNI220Y1Enrolment Limits: Priority: ASMAJ0728 (Ma Canadian Studies); ASSPE0728 (Sp Canadian Studies); ASMIN0728 (Mi Canadian Studies); ASMIN2728 (Mi Asian Canadian Studies)","Breadth": "Society and its Institutions (3)"}
{"ProgramCode": "uni","Code": "UNI280","Name": "Canadian Jewish History[24L]","Description": "This course focuses on initial settlement patterns of Jewish people in Toronto and elsewhere, community growth including suburbanization, and contemporary challenges such as anti-Semitism and assimilation.","Prerequisite": "none","Corequisite": "none","Exclusion": "none","Breadth": "Society and its Institutions (3)"}
{"ProgramCode": "uni","Code": "UNI305","Name": "Topics in Canadian Studies II[24L]","Description": "An in-depth study of selected questions in contemporary Canadian culture and society. Content will vary from year to year. Specific course information will be available on the Canadian Studies website at www.uc.utoronto.ca/canadianstudies/. ","Prerequisite": "none","Corequisite": "none","Exclusion": "none","Breadth": "None"}
{"ProgramCode": "uni","Code": "UNI307","Name": "Asian Cultures in Canada (formerly UNI307Y1)[24S]","Description": "An exploration of the cultural histories and creative productions of a wide range of Asian communities in Canada. Experts in specific areas - literature, dance, drama, film - will be invited to present their work.","Prerequisite": "none","Corequisite": "none","Exclusion": "UNI307Y1Recommended Preparation: UNI220Y1","Breadth": "Creative and Cultural Representations (1)"}
{"ProgramCode": "uni","Code": "UNI307","Name": "Asian Cultures in Canada[48L]","Description": "An exploration of the cultural histories and creative productions of a wide range of Asian communities in Canada.. Experts in specific areas literature, dance, drama, filmwill be invited to present their work.","Prerequisite": "none","Corequisite": "none","Exclusion": "UNI307H1Recommended Preparation: UNI220Y1","Breadth": "Creative and Cultural Representations (1)"}
{"ProgramCode": "uni","Code": "JUG320","Name": "The Canadian Wilderness [24L]","Description": "The idea of wilderness permeates narratives of Canadian national identity, while policy-makers seek to manage and contain natural areas. This course compares and contrasts historical and contemporary wilderness narratives in literature, painting and film with policies in areas such as conservation, urban planning, land claims and tourism.","Prerequisite": "none","Corequisite": "none","Exclusion": "none","Breadth": "Thought, Belief and Behaviour (2)"}
{"ProgramCode": "uni","Code": "UNI325","Name": "Queerly Canadian[36L]","Description": "This course focuses on Canadian literary and artistic productions that challenge prevailing notions of nationality and sexuality, exploring not only how artists struggle with that ongoing Canadian thematic of being and belonging, but also celebrate pleasure and desire as a way of imagining and articulating an alternative national politics.","Prerequisite": "UNI255H1/UNI256H1/UNI220Y1 or permission of the instructor","Corequisite": "none","Exclusion": "UNI375H1 Special Topics: Queerly Canadian","Breadth": "Creative and Cultural Representations (1)"}
{"ProgramCode": "uni","Code": "UNI335","Name": "Black Canadian Studies[24S]","Description": "An interdisciplinary course that interrogates the constitution of blackness in Canada. Students will study race and ethnic relations, alongside other identity formations such as class, gender and sexuality. Topics to be addressed include media, education, law, immigration and mobility, urbanism, work, political representation and the arts.","Prerequisite": "UNI267H1, UNI268H1","Corequisite": "none","Exclusion": "none","Breadth": "Society and its Institutions (3)"}
{"ProgramCode": "uni","Code": "UNI367","Name": "Canadian Pluralism (formerly UNI320Y1)[24S]","Description": "Students will examine the complexities of social and cultural interaction in the context of changing Canadian demographics. This course compares and contrasts policies regarding indigenous rights, migration, multiculturalism, and citizenship with contemporary cultural narratives in literature, painting and film.","Prerequisite": "UNI267H1/UNI268H1/UNI220Y1","Corequisite": "none","Exclusion": "UNI320Y1Enrolment Limits: Priority: ASMAJ0728 (Ma Canadian Studies); ASSPE0728 (Sp Canadian Studies); ASMIN0728 (Mi Canadian Studies); ASMIN2728 (Mi Asian Canadian Studies)","Breadth": "Creative and Cultural Representations (1)"}
{"ProgramCode": "uni","Code": "UNI368","Name": "Canada&rsquo;s Borders (formerly UNI320Y1)[24S]","Description": "The Canadian border is being reshaped by the increasing transnational movement of people, goods and ideas. Students will examine border issues relating to mobility, trade, and security from a wide range of interdisciplinary perspectives, from public policy to contemporary media, such as TV, films, and novels.","Prerequisite": "UNI267H1/UNI268H1/UNI220Y1","Corequisite": "none","Exclusion": "UNI320Y1Enrolment Limits: Priority: ASMAJ0728 (Ma Canadian Studies); ASSPE0728 (Sp Canadian Studies); ASMIN0728 (Mi Canadian Studies); ASMIN2728 (Mi Asian Canadian Studies)","Breadth": "Society and its Institutions (3)"}
{"ProgramCode": "uni","Code": "UNI380","Name": "Socio-Cultural Perspective of the Canadian Jewish Community[24L]","Description": "This course examines the relationship between prominent Canadians who happen to be Jews and those whose works are founded in Jewish identity; the diversity of the community on the basis of religion, language, class, ideology, etc.; contributions to the arts and scholarship; and the role and contribution of Jewish women.","Prerequisite": "none","Corequisite": "none","Exclusion": "none","Breadth": "Creative and Cultural Representations (1)"}
{"ProgramCode": "uni","Code": "UNI390","Name": "Chinese Canadian Studies[24S]","Description": "This course will examine socio-cultural, political and economic aspects of Chinese communities in Canada. It explores how the study of Chinese Canadians challenges and augments our understanding of issues such as immigration and diaspora, multiculturalism, and race and ethnicity.","Prerequisite": "UNI267H1/UNI268H1Recommended Preparation: UNI230H1","Corequisite": "none","Exclusion": "none","Breadth": "Creative and Cultural Representations (1)"}
{"ProgramCode": "uni","Code": "UNI395","Name": "Independent Study in Asian Canadian Studies[TBA]","Description": "An opportunity to write an independent research paper in Asian Canadian Studies under direction of a faculty member. Students wishing to take this course must have their essay proposal and supervisor approved by the Canadian Studies program director. The application for enrolment should be made in the term preceding study. Not eligible for CR/NCR option.","Prerequisite": "UNI267H1/UNI268H1","Corequisite": "none","Exclusion": "none","Breadth": "None"}
{"ProgramCode": "uni","Code": "UNI405","Name": "The University in Canada[24S]","Description": "This seminar course will address the role of universities in Canadian society and in the lives of Canadians. Students will explore both contemporary issues in Canadian higher education and consider the historical contexts from which they emerged.","Prerequisite": "UNI367H1/UNI368H1Recommended Preparation: UNI267H1, UNI268H1, UNI367H1, UNI368H1","Corequisite": "none","Exclusion": "none","Breadth": "Society and its Institutions (3)"}
{"ProgramCode": "uni","Code": "UNI420","Name": "Senior Essay[48S]","Description": "Students select an appropriate research topic and, in consultation with the Program Director, make arrangements with a suitable supervisor. Preferably, research projects must be approved by the supervisor and by the Director of the Canadian Studies Program by April of the preceding academic year. Students meet periodically during the year in seminar to participate in peer evaluations of: statement of research, literature review, methods of analysis, and to share reports of progress in research. Not eligible for CR/NCR option.","Prerequisite": "Normally open only to Majors and Specialists in the Canadian Studies program or with permission of the Program Director.","Corequisite": "none","Exclusion": "none","Breadth": "None"}
{"ProgramCode": "uni","Code": "UNI430","Name": "Senior Seminar: Special Topics in Canadian Studies[48S]","Description": "An upper level seminar. Not eligible for CR/NCR option.","Prerequisite": "(UNI367H1, UNI368H1)/UNI320Y1 or permission of the Director of the Canadian Studies program","Corequisite": "none","Exclusion": "none","Breadth": "None"}
{"ProgramCode": "uni","Code": "UNI435","Name": "Active Citizenship in a Canadian Context[48S]","Description": "This course draws from theoretical works to critically examine the experiences of citizenship of various communities in Canada. A service learning component is incorporated so that students can themselves engage in active citizenship. The course develops extra-curricular expertise that can contribute to a student&rsquo;s professional CV.","Prerequisite": "completion of 10 FCEs, and application required. See http://www.uc.utoronto.ca/courses-offered-canadian-studies-program for details.","Corequisite": "none","Exclusion": "none","Breadth": "Creative and Cultural Representations (1) + Society and its Institutions (3)"}
{"ProgramCode": "uni","Code": "UNI425","Name": "Independent Research in Canadian Studies[TBA]","Description": "An opportunity to write a substantial research paper in Canadian Studies that integrates research methodologies and conceptual frameworks developed over the student&rsquo;s course of study. Students must have their topic and supervisor approved by the Canadian Studies program director. Not eligible for CR/NCR option.","Prerequisite": "(UNI367H1, UNI368H1) / UNI320Y1 or permission of the Program Director","Corequisite": "none","Exclusion": "none","Breadth": "None "}
{"ProgramCode": "uni","Code": "COG250","Name": "Introduction to Cognitive Science (formerly JUP250Y1, UNI250Y1) [78L]","Description": "An introduction to the problems, theories and research [strategies central to the interdisciplinary field focussing on the nature and organization of the human mind and other cognitive systems. Interrelations among the philosophical, psychological, linguistic and computer science aspects of the field are emphasized.","Prerequisite": "none","Corequisite": "none","Exclusion": "JUP250Y1, UNI250Y1","Breadth": "Thought, Belief and Behaviour (2)"}
{"ProgramCode": "uni","Code": "COG341","Name": "Issues in Cognitive Science I[36L]","Description": "An examination of core topics in cognitive science building on introductions in COG250Y. Typical topics include: perception and attention; concepts; imagery; consciousness; theories of mind; cognitive evolution.","Prerequisite": "3 FCEs in Cognitive Science, which must include COG250Y1, PSY270H1, and PHL342H1","Corequisite": "none","Exclusion": "none","Breadth": "Thought, Belief and Behaviour (2)"}
{"ProgramCode": "uni","Code": "COG342","Name": "Issues in Cognitive Science II[36L]","Description": "An examination of core topics in cognitive science building on introductions in COG250Y. Typical topics include: perception and attention; concepts; imagery; consciousness; theories of mind; cognitive evolution.","Prerequisite": "3 FCEs in Cognitive Science, which must include COG250Y1, PSY270H1, and PHL342H1","Corequisite": "none","Exclusion": "none","Breadth": "Thought, Belief and Behaviour (2)"}
{"ProgramCode": "uni","Code": "COG401","Name": "Seminar in Cognitive Science[36S]","Description": "Advanced treatment of cognitive science topics.","Prerequisite": "5.0 credits in cognitive science.","Corequisite": "none","Exclusion": "none","Breadth": "Thought, Belief and Behaviour (2)"}
{"ProgramCode": "uni","Code": "COG402","Name": "Seminar in Cognitive Science[36S]","Description": "Advanced topics in cognitive science.","Prerequisite": "5.0 credits in cognitive science.","Corequisite": "none","Exclusion": "none","Breadth": "Thought, Belief and Behaviour (2)"}
{"ProgramCode": "uni","Code": "COG499","Name": "Individual Study in Cognitive Science [TBA]","Description": "Individual studies. Not eligible for CR/NCR option.","Prerequisite": "none","Corequisite": "none","Exclusion": "none","Breadth": "None "}
{"ProgramCode": "uni","Code": "UNI209","Name": "Introduction to Health: Determinants of Health &amp; Health Care[24L]","Description": "A multidisciplinary approach to understanding perspectives in health, health equity, and primary health care. Themes include critical discussion of the measurements of health outcomes and the socioeconomic and political factors that affect health, including neglected and marginalized populations in Canada and globally.","Prerequisite": "none","Corequisite": "none","Exclusion": "none","Breadth": "Society and its Institutions (3)"}
{"ProgramCode": "uni","Code": "UNI211","Name": "Health Policy in Canada (formerly UNI300Y1, 300H1)[24L]","Description": "This course introduces students to health policy in Canada. It examines the policy making process; policy making in the Canadian context, and specifically, the development of health policy in Canada. It explores current debates about health issues with a focus on the social determinants of health.    Health is increasingly contentious with Canada&rsquo;s aging population, advancements in medical technology, and government fiscal restraints. It is a challenge to achieve the best health given the limited resources available, and to ensure that health care is fair, equal, accessible.  The course will provide analytical tools for understanding health policy, offer an overview of current policy issues, and examine how to improve health policies.","Prerequisite": "none","Corequisite": "none","Exclusion": "SOC351Y1, SOC352H1","Breadth": "Society and its Institutions (3)"}
{"ProgramCode": "uni","Code": "JSU237","Name": "Introduction to HIV/AIDS: Health, Sexuality and Gender[24L]","Description": "A critical examination of the HIV/AIDS global pandemic from a multidisciplinary perspective and with an emphasis on sexuality. The course examines the basic biology of HIV/AIDS and then covers social, historical, political, cultural, gender, and public health aspects of HIV/AIDS. Attention is given to the distinct features of vulnerable and marginalized populations, prevention, treatment, drug development, and access to medicines.","Prerequisite": "none","Corequisite": "none","Exclusion": "none","Breadth": "Society and its Institutions (3)"}
{"ProgramCode": "uni","Code": "UNI250","Name": "Introduction to Research Methods in Health Studies (formerly UNI200H1)[36L]","Description": "This course will offer students in Health Studies a basic understanding of research design and data collection on health topics and the usefulness of data collection in the formation of health policy.","Prerequisite": "none","Corequisite": "none","Exclusion": "POL242Y1, SOC200H1, UNI200Y1/UNI200H1, WDW350Y1","Breadth": "Society and its Institutions (3)"}
{"ProgramCode": "uni","Code": "PHS300","Name": "HIV Prevention Research[24L]","Description": "This course engages students in in-depth learning about HIV research.  In addition to learning about methods and issues from a variety of research disciplines as applied to HIV, students will be expected, with guidance, to design a study relevant to the content of the course.","Prerequisite": "UNI200H1/UNI250H1/UNI237H1/SOC309Y1 or permission of instructorRecommended Preparation: Introductory course in statistics","Corequisite": "none","Exclusion": "none","Breadth": "Society and its Institutions (3)"}
{"ProgramCode": "uni","Code": "UNI308","Name": "Aging and Health[24L]","Description": "Provides an understanding of the interface between health and aging, and how to maintain wellness in a rapidly aging population.  Examines theories of aging, the meaning of health in old age, myths about the health of Canada&rsquo;s older people, and emerging national and international responses to aging populations.","Prerequisite": "UNI209H1, UNI211H1","Corequisite": "none","Exclusion": "none","Breadth": "Society and its Institutions (3)"}
{"ProgramCode": "uni","Code": "UNI309","Name": "Special Topics in Health Studies[24L]","Description": "Students will have the opportunity to develop an awareness and understanding of the health system and issues associated with population aging (aging and disability) and what it means to live with and grow older with a pre-existing disability. The theoretical lenses and assumptions associated with disability will be identified and described in order to demonstrate how they are used to inform health care and rehabilitation policies and practices intended to improve the everyday lives of these individuals.","Prerequisite": "none","Corequisite": "none","Exclusion": "none","Breadth": "None"}
{"ProgramCode": "uni","Code": "UNI330","Name": "Population Health (formerly UNI373H1)[24S]","Description": "This issue-oriented course will extend students&acute; understanding of the broad definitions of health and its determinants, and population-based strategies of health promotion in Canada. Topics include: variations in health status as affected by population patterns, class, gender, ethnicity, employment, and family composition; the major causes of morbidity and mortality; the concept of \"community health\", and the opportunities and constraints facing public policy.","Prerequisite": "STA220H1 or equivalent","Corequisite": "UNI250H1","Exclusion": "none","Breadth": "Society and its Institutions (3)"}
{"ProgramCode": "uni","Code": "UNI409","Name": "Special Topics on Health Research[24S]","Description": "The specific content of this course will vary from one year to another, depending on the availability of particular health researchers and scholars. In a given year, the course may focus on AIDS, tobacco addiction, nutritional issues in low-income countries, and the persistence of infant health problems in poor Canadian communities.","Prerequisite": "none","Corequisite": "none","Exclusion": "none","Breadth": "None"}
{"ProgramCode": "uni","Code": "UNI411","Name": "Political Economy of Health and Marginalization[24L]","Description": "This course undertakes a critical interrogation of 'marginality' and its expression in the shape of social inequalities in health. A political economy approach is applied in order to better understand the policy origins of these inequalities, the policy action that is required to tackle them, and the political obstacles that hinder the possibility for such action.","Prerequisite": "UNI209H1/HMB303H1","Corequisite": "none","Exclusion": "UNI411Y1","Breadth": "Society and its Institutions (3)"}
{"ProgramCode": "uni","Code": "UNI440","Name": "Health &amp; Pharmaceuticals (formerly UNI330H1)[24L]","Description": "A critical examination of drug development, including the role of health professionals and the pharmaceutical industry in researching, testing, marketing, licensing, and evaluating pharmaceutical drugs. Topics include the differing needs for drug development in different societies, evaluation and dispensing in lower income countries, and potential conflicts of interest in drug development.","Prerequisite": "UNI209H1/HMB303H1 or permission of instructor","Corequisite": "none","Exclusion": "UNI330H1 (Health & Pharmaceuticals) taken prior to 2010-11","Breadth": "Society and its Institutions (3)"}
{"ProgramCode": "uni","Code": "UNI450","Name": "Undergraduate Research Project II[48L]","Description": "The second research course required for Health Studies students in the Specialist. Students engage in a specific research project during their last two years within the program. This course is a continuation of UNI350Y1 and will further develop the skills addressed in that course. Student will prepare an undergraduate thesis by the end of this academic year.","Prerequisite": "UNI250H1, STA220H1 or equivalent, UNI350Y1","Corequisite": "none","Exclusion": "none","Breadth": "None"}
{"ProgramCode": "uni","Code": "UNI451","Name": "Independent Research in Health Studies[TBA]","Description": "This two-semester course designation will permit students to gain academic credit for health studies pursued independently under the supervision of a University of Toronto faculty member; or to participate in an ongoing health research project under the joint supervision of the projects Principal Investigator and the Director of the Health Studies Program. Not eligible for CR/NCR option.","Prerequisite": "UNI209H1, UNI250H1 ","Corequisite": "none","Exclusion": "none","Breadth": "None"}
{"ProgramCode": "uni","Code": "UNI464","Name": "The Nature of International Health[24L]","Description": "Focusing on areas of particular relevance and on specific case studies, this course explores the historical, ideological, economic, political, and organizational factors that shape the theory and practice of international health (IH). Students will be encouraged to critically examine some of the central tensions embedded in this field including, among others: IH as benevolent giving vs. a practice informed by the principles of social justice; IH problems as challenges in need of cost-effective technical solutions vs. complex issues requiring a comprehensive approach targeting the social determinants of health; and a traditional vision that divides the world into developed and developing countries, &ldquo;here&rdquo; and &ldquo;there&rdquo;, and &ldquo;us&rdquo; and &ldquo;them&rdquo;.","Prerequisite": "UNI209H1/HMB303H1","Corequisite": "none","Exclusion": "none","Breadth": "Society and its Institutions (3)"}
{"ProgramCode": "uni","Code": "UNI480","Name": "Independent Research in Health Studies[TBA]","Description": "This one-semester course will permit students to gain academic credit for health studies pursued independently under the supervision of a University of Toronto faculty member; or to participate in an ongoing health research project under the joint supervision of the projects Principal Investigator and the Director of the Health Studies Program. Not eligible for CR/NCR option.","Prerequisite": "UNI209H1, UNI250H1","Corequisite": "none","Exclusion": "none","Breadth": "None "}
{"ProgramCode": "uni","Code": "JUM202","Name": "Mathematics as an Interdisciplinary Pursuit (formerly JUM102H1) [24L/12T]","Description": "A study of the interaction of mathematics with other fields of inquiry: how mathematics influences, and is influenced by, the evolution of science and culture. Art, music, and literature, as well as the more traditionally related areas of the natural and social sciences may be considered. (Offered every three years)","Prerequisite": "none","Corequisite": "none","Exclusion": "JUM102H1","Breadth": "The Physical and Mathematical Universes (5)"}
{"ProgramCode": "uni","Code": "JUM203","Name": "Mathematics as a Recreation (formerly JUM103H1)[24L/12T]","Description": "A study of games, puzzles and problems focusing on the deeper principles they illustrate. Concentration is on problems arising out of number theory and geometry, with emphasis on the process of mathematical reasoning. Technical requirements are kept to a minimum. A foundation is provided for a continuing lay interest in mathematics. (Offered every three years)","Prerequisite": "none","Corequisite": "none","Exclusion": "JUM103H1","Breadth": "The Physical and Mathematical Universes (5)"}
{"ProgramCode": "uni","Code": "JUM204","Name": "Mathematics and Poetry[36L]","Description": "An interdisciplinary exploration of creativity and imagination as they arise in the study of mathematics and poetry. (Offered every three years)","Prerequisite": "none","Corequisite": "none","Exclusion": "MEJ204H1","Breadth": "The Physical and Mathematical Universes (5)"}
{"ProgramCode": "uni","Code": "JUM205","Name": "Mathematical Personalities (formerly JUM105H1) [24L/12T]","Description": "An in-depth study of the life, times and work of several mathematicians who have been particularly influential. Examples may include Newton, Euler, Gauss, Kowalewski, Hilbert, Hardy, Ramanujan, G&ouml;del, Erd&ouml;s, Coxeter, Grothendieck. (Offered every three years)","Prerequisite": "none","Corequisite": "none","Exclusion": "JUM105H1","Breadth": "The Physical and Mathematical Universes (5)"}
{"ProgramCode": "uni","Code": "JUM206","Name": "Mathematics and Law[72L]","Description": "The course examines the relationship between legal reasoning and mathematical logic; provides a mathematical perspective on the legal treatment of interest and actuarial present value; critiques ethical issues; analyzes how search engine techniques on massive databases transform legal research and considers the impact of statistical analysis and game theory on litigation strategies.","Prerequisite": "A basic understanding of mathematical concept and average computation skills are a requirement","Corequisite": "none","Exclusion": "none","Breadth": "Thought, Belief and Behaviour (2) + The Physical and Mathematical Universes (5)"}
{"ProgramCode": "uni","Code": "JUC299","Name": "Research Opportunity Program ","Description": "Credit course for supervised participation in faculty research project. Details at http://www.artsci.utoronto.ca/current/course/rop. Not eligible for CR/NCR option.","Prerequisite": "none","Corequisite": "none","Exclusion": "none","Breadth": "None"}
{"ProgramCode": "uni","Code": "UNI299","Name": "Research Opportunity Program","Description": "Credit course for supervised participation in faculty research project. Details at http://www.artsci.utoronto.ca/current/course/rop. Not eligible for CR/NCR option.","Prerequisite": "none","Corequisite": "none","Exclusion": "none","Breadth": "None"}
{"ProgramCode": "uni","Code": "UNI393","Name": "University College Independent Studies[TBA]","Description": "An opportunity to design an independent research course of study at the 300 level not otherwise available within the Faculty. Normally, students will have a minimum cGPA of 3.0 and have completed 10 FCEs. Permission of a faculty supervisor and approval by the Vice-Prinicipal are required. Those registered in a UC program or UC-registered students should submit a written proposal and application form to the Programs Office (UC173) for approval. Applications for Y and F courses are due by 30 June prior to the academic year; S courses to be submitted by 15 September; Summer proposals are due by 15 February. Not eligible for CR/NCR option.","Prerequisite": "Permission of University College Vice-Principal ","Corequisite": "none","Exclusion": "none","Breadth": "None"}
{"ProgramCode": "uni","Code": "UNI394","Name": "University College Independent Studies[TBA]","Description": "An opportunity to design an independent research course of study at the 300 level not otherwise available within the Faculty. Normally, students will have a minimum cGPA of 3.0 and have completed 10 FCEs. Permission of a faculty supervisor and approval by the Vice-Prinicipal are required. Those registered in a UC program or UC-registered students should submit a written proposal and application form to the Programs Office (UC173) for approval. Applications for Y and F courses are due by 30 June prior to the academic year; S courses to be submitted by 15 September; Summer proposals are due by 15 February. Not eligible for CR/NCR option.","Prerequisite": "Permission of University College Vice-Principal","Corequisite": "none","Exclusion": "none","Breadth": "None"}
{"ProgramCode": "uni","Code": "UNI495","Name": "University College Independent Studies[TBA]","Description": "An opportunity to design an independent research course of study at the 400 level not otherwise available within the Faculty. Normally, students will have a minimum cGPA of 3.0 and have completed 15 FCEs. Permission of a faculty supervisor and approval by the Vice-Prinicipal are required. Those registered in a UC program or UC-registered students should submit a written proposal and application form to the Programs Office (UC173) for approval. Applications for Y and F courses are due by 30 June prior to the academic year; S courses to be submitted by 15 September; Summer proposals are due by 15 February. Not eligible for CR/NCR option.","Prerequisite": "Permission of University College Vice-Principal ","Corequisite": "none","Exclusion": "none","Breadth": "None"}
{"ProgramCode": "uni","Code": "UNI496","Name": "University College Independent Studies[TBA]","Description": "An opportunity to design an independent research course of study at the 400 level not otherwise available within the Faculty. Normally, students will have a minimum cGPA of 3.0 and have completed 15 FCEs. Permission of a faculty supervisor and approval by the Vice-Prinicipal are required. Those registered in a UC program or UC-registered students should submit a written proposal and application form to the Programs Office (UC173) for approval. Applications for Y and F courses are due by 30 June prior to the academic year; S courses to be submitted by 15 September; Summer proposals are due by 15 February. Not eligible for CR/NCR option.","Prerequisite": "Permission of University College Vice-Principal","Corequisite": "none","Exclusion": "none","Breadth": "None"}
