{"ProgramCode": "wdw","Code": "WDW101","Name": "Canadian History (formerly JWH100Y1)[72L]","Description": "This course is a survey of Canada's political, social, and economic history from European settlement to the present, featuring Canada's native peoples, Anglophone-Francophone issues, Canada's relations with Britain and the United States, and the growth of national institutions. Other themes include regionalism, immigration and multiculturalism. Students write short essays in and out of class and conduct library research in the preparation of major essays. Not eligible for CR/NCR option.","Prerequisite": "none","Corequisite": "none","Exclusion": "JWH100Y1","Breadth": "Society and its Institutions (3)"}
{"ProgramCode": "wdw","Code": "WDW102","Name": "Contemporary Canada (formerly JWU100Y1)[72L]","Description": "This interdisciplinary, foundational course provides an introduction to contemporary Canadian society. The course includes the study of geography, politics, literature and culture through a historical framework of the twentieth century. It also emphasizes particular themes including aboriginal issues, regionalism, French-English conflict, gender/women's issues and immigration/multiculturalism. Students sharpen their academic skills in writing short essays, a book review, a research proposal and a standard research paper. Not eligible for CR/NCR option.","Prerequisite": "none","Corequisite": "none","Exclusion": "JWU100Y1","Breadth": "Creative and Cultural Representations (1) + Society and its Institutions (3)"}
{"ProgramCode": "wdw","Code": "WDW103","Name": "Introduction to the Study of Literature (formerly ENG185Y1)[72L]","Description": "A writing intensive course that introduces essential rhetorical and critical skills, focusing on how to recognize major literary forms; how to read critically, comprehend more fully, analyze outstanding literary works of drama, poetry and fiction; how to write more clearly and effectively, and how to use the library to do research. This course may not count toward any English program. Not eligible for CR/NCR option.","Prerequisite": "none","Corequisite": "none","Exclusion": "ENG185Y1","Breadth": "Creative and Cultural Representations (1)"}
